Id,Price
1,1452.54508097
147,3736.34263358
159,3852.61184637
234,2807.10006424
325,2431.3022358
332,3525.36832052
345,2929.71029552
357,2491.29676063
451,3428.38286195
462,2757.90799061
496,3161.05546544
508,3508.15348042
546,3533.55538589
556,4378.58975306
607,4023.32275746
673,3256.49952376
799,3803.74139474
824,3416.25641274
848,4329.77651441
950,3926.48470927
1010,3836.20135912
1012,4249.84441456
1023,3680.40956754
1113,3283.64827335
1130,3499.48868352
1186,4038.50360127
1204,3991.61235837
1244,3471.07577137
1277,3611.81463329
1293,3701.64923242
1301,3745.6287375
1311,2622.60284351
1341,3377.47437547
1414,3823.39148099
1426,4240.44699475
1469,4263.29576889
1512,4254.94849764
1532,4138.4358312
1534,3958.34432944
1586,3657.22384935
1654,3855.65365095
1700,3728.40120462
1719,129.291807408
1804,3725.0308178
1855,3554.79024411
1898,3812.23153667
1970,3420.08355105
2008,3911.85177387
2101,3579.5567497
2114,4382.21146573
2141,3219.04236729
2233,4042.769352
2292,3350.98227909
2322,4000.02060599
2394,385.269232281
2511,1402.04173984
2514,3874.27170551
2570,4049.54825683
2582,4236.02923541
2634,4152.586664
2702,373.945119282
2762,3421.95516702
2837,4253.25583238
2861,3407.32551484
2869,4088.08686247
2889,3966.66580799
2909,4047.21001981
2966,4662.86031523
3042,397.863015112
3178,4320.94817621
3219,3799.34636455
3240,4199.16698799
3261,3991.53233352
3279,4042.35566834
3283,4214.09631241
3286,3179.21681844
3304,4177.9406889
3353,3847.32494392
3396,177.648728558
3426,3741.62242492
3544,4206.11309274
3602,3676.59955743
3788,4123.10985076
3794,3917.62578318
3847,3713.6314825
3859,3910.64312409
3869,4467.05340893
3909,4326.64597871
3998,4072.16823324
4038,3609.46825143
4059,98.982269075
4159,4545.03825156
4304,2622.27847962
4322,4460.44725652
4444,4772.65272004
4548,4587.95808149
4584,4778.95049176
4609,3700.15157521
4746,3229.45899286
4913,4607.04447327
5006,3952.89902227
5062,914.287539561
5374,982.930595109
5446,2486.83074461
5539,3879.30781086
5541,4400.79761028
5579,4716.03129465
5772,3962.96075665
5799,4199.28487632
5811,4193.024329
5864,4493.2814371
5897,4366.61003712
5926,3914.2698336
5950,3435.03128031
6064,4510.09962909
6105,4360.48240391
6116,4197.46343754
6126,3616.96718207
6262,4462.78179845
6298,4224.58367586
6347,3839.55486064
6386,718.916749388
6423,4434.60562227
6444,4633.89731921
6560,4407.3905888
6680,4184.56601223
6719,865.620848994
6731,10.9971758138
6733,601.535039838
6771,4761.94980798
6825,4079.66317083
6888,4389.68469259
6906,4817.39442046
6931,4462.62784468
6938,4187.69383059
6943,5226.02470245
6965,3759.61286331
6999,4522.79769327
7019,4287.80328455
7029,4434.79097953
7049,3771.76883358
7082,4085.09454001
7203,4582.39165377
7363,4754.65700285
7395,201.544200692
7558,5963.70351537
7574,5117.88151661
7577,4595.84860776
7707,4701.62996189
7747,4602.97673289
7768,5238.55637088
7780,4452.80067625
7818,4778.36438526
7845,4905.15428362
7942,5076.95728949
8029,5651.46273165
8034,3836.70886283
8045,1084.14177879
8229,5361.01138186
8260,3889.66683519
8277,4240.49053144
8363,5741.36165069
8371,403.416539413
8389,120.819074533
8443,4404.88689541
8709,423.529832167
8756,5025.96675077
8827,4944.49597944
8919,4362.13047712
9087,4929.96151307
9105,5077.22579167
9109,6076.95599309
9111,5027.04712599
9152,5544.89120147
9298,4867.66510136
9301,5329.30478267
9365,263.572494466
9399,4831.64456906
9558,4841.9484574
9799,4611.58430824
9812,5398.10540068
9859,5705.06344188
9860,6682.68850841
9909,4964.36385522
9917,4986.88274745
9934,5528.38385451
9957,4371.89852684
9998,4614.84915131
10101,5256.97417431
10112,5357.29997934
10121,5046.49348822
10143,5080.89823765
10205,5058.3971182
10258,5184.0974984
10265,4893.67925448
10274,5286.2850108
10287,5341.19906173
10296,5394.90781483
10490,4044.82622495
10492,5453.03820116
10519,4580.95685852
10559,5379.45539597
10599,5428.96196884
10657,5215.46295882
10671,5569.2600776
10694,5293.68230062
10772,4905.15751384
10891,5388.83160067
10963,5277.90285471
11004,5909.74476055
11005,5702.33581114
11010,5675.21392659
11033,5336.19297113
11056,567.525544173
11110,5056.54642323
11118,5654.97295857
11193,5417.9850527
11321,6023.53747282
11329,5249.2820071
11365,6269.63739769
11381,926.533183551
11404,5468.54581238
11405,5723.17232759
11459,5835.00472002
11515,8248.58695404
11597,5868.18813932
11606,5433.20990794
11648,5753.07527168
11697,6453.74480185
11716,413.244374783
11785,6796.2296951
11802,5695.47119915
11890,5824.61465659
11910,4850.54414831
12051,9.77984523853
12082,6002.26220667
12341,5600.03242377
12353,5786.96417093
12427,5764.17619177
12530,5210.75482137
12566,5843.15144894
12693,129.102619722
12781,5972.18817505
12855,5749.0980576
12869,5856.92621874
12877,5931.36797628
13042,193.422722987
13061,5681.63189522
13069,6457.3359933
13070,6460.10993934
13091,6529.53339225
13133,6127.41368181
13182,4835.59935614
13215,5756.4427834
13287,5752.88510083
13288,5790.62117858
13400,511.56246558
13504,5880.77300606
13608,6167.75027509
13677,5922.2740539
13688,5640.92011186
13715,542.445204176
13745,6450.37966731
13819,6462.05775727
13844,6044.43766505
13877,5872.70838575
13917,6021.96368632
13948,6497.41620848
13997,6570.13866577
14016,6055.22719919
14052,209.032255801
14093,6523.80032285
14204,6051.05908422
14239,3814.49137623
14262,7754.09828838
14333,5403.78954718
14388,414.222041532
14422,6772.21997846
14467,6104.50168798
14479,7925.5133976
14529,6308.60305488
14584,6061.33538524
14660,6562.32938385
14693,6312.17458843
14719,66.9544802649
14801,6279.74339249
14854,6202.90600128
14917,6545.6350164
15007,6766.78575741
15026,7087.34685717
15029,5873.06820631
15039,505.046293296
15078,5990.51648226
15086,6545.81555695
15104,7210.92989376
15135,6797.99679678
15261,6294.29583354
15267,6619.54343854
15285,6743.41395955
15486,7942.36363942
15506,7328.51912825
15512,6221.48583516
15535,6086.77178846
15550,6032.41130863
15588,7725.99294668
15599,6224.9365909
15664,6574.42419926
15740,6168.2083399
15764,7140.90523377
15839,6285.30445704
15854,5879.17801124
15982,6411.28251629
16001,8628.09673046
16106,6163.12578975
16152,7644.55704329
16196,6518.72232688
16199,7377.4108766
16201,7270.74287832
16207,6500.51362989
16284,20421.3592001
16292,6068.27405623
16309,7214.0549659
16327,6619.03006771
16620,6246.6279131
16636,5986.98349656
16638,12363.0864831
16692,1913.26579516
16778,6373.72204066
16794,6880.51056652
16849,6299.78177907
16890,7239.80280791
16906,7536.64371767
16972,6407.61477496
16976,7791.10226087
16978,6906.78236199
16996,6213.5812504
17022,6366.21095793
17055,1470.77597533
17063,327.937672455
17104,8133.8533579
17188,6030.01238481
17190,6593.18179365
17367,10592.1080136
17407,7684.65151301
17448,6947.01785884
17462,6542.57455375
17498,7506.82936185
17538,6618.59801633
17561,12900.7959563
17573,7444.79529145
17605,7514.56395641
17614,7697.02724731
17643,7619.60508913
17666,6679.20450979
17749,9191.13277555
17807,6304.05828814
17926,6945.88376759
17942,6678.6686288
18064,6793.73763433
18077,9738.44658483
18117,8005.3784504
18135,6154.41520054
18395,7988.10960497
18441,8527.82754077
18465,7162.41323798
18467,7625.40445829
18589,9585.61472926
18590,7554.99738688
18600,6716.42033961
18716,941.790098906
18848,9038.73442061
18869,7915.62684649
18882,7973.50910957
18903,8480.71728573
18927,8445.69660112
18931,6785.63737836
19192,9548.35025955
19209,7006.82198084
19258,8709.91048869
19280,6979.92114636
19329,8863.15608359
19434,6587.31265734
19486,7066.88443661
19497,8373.92000052
19570,6887.77877705
19610,10263.0788353
19660,7130.74646132
19714,8984.00164108
19950,9322.78200258
20039,1174.21422471
20054,603.223716038
20226,10012.0338111
20234,9174.71440008
20269,8113.4199586
20301,8865.92778806
20333,10219.5831311
20370,9669.26179923
20384,402.217924875
20415,8254.70708849
20465,9330.4612358
20467,7393.32005427
20572,8114.09602085
20669,7889.62516895
20692,7543.87165952
20788,9417.84458921
21011,10542.6785904
21017,8424.92912267
21032,225.974593063
21050,531.968417417
21080,9136.98232025
21095,8830.90705949
21111,8869.74796164
21128,9908.75039975
21234,10404.0490884
21258,8977.49591893
21269,8185.55363581
21283,10156.3363361
21309,9573.96374304
21324,9826.72987059
21325,9603.65923362
21400,9444.89001357
21408,7171.195934
21470,9647.71616866
21590,9541.27994345
21680,8274.01204713
21865,10514.8688771
21971,10395.832734
21999,7773.15136724
22033,573.114526689
22148,13612.2623607
22180,10055.1123852
22264,10552.2447072
22309,10707.2644904
22358,169.754941709
22370,311.93950966
22427,7199.19340924
22499,10157.4668181
22540,13113.9164726
22857,8653.28083911
22963,10067.2980869
22981,10030.8573959
22984,10700.7037082
22994,11206.6105865
22996,10556.151306
23122,15186.441382
23130,9399.57713347
23148,12072.9102058
23198,10236.2059788
23202,13734.3919348
23379,319.863596044
23437,8484.99823022
23461,12107.3428868
23549,10229.3878615
23552,10079.1584865
23633,11556.3064214
23706,377.241880136
23736,13290.0325964
23742,11932.4522394
23751,9969.68524264
23759,7758.41873618
23806,11475.9132027
23911,11810.385131
23963,11399.7979949
23966,15646.7394314
23973,14446.9420445
24006,11188.0161357
24020,10634.9491638
24037,221.021985503
24064,9718.92736978
24105,12699.4951637
24138,10495.1007942
24247,10189.7638464
24336,10849.2701999
24346,13697.144191
24347,8901.80268592
24355,13773.4930893
24363,398.599884152
24371,744.63349917
24418,9164.87831492
24425,13838.2080372
24441,11420.8670941
24484,15596.3147945
24568,13099.5474397
24652,11046.5037648
24696,993.957914588
24747,11825.0906653
24760,13422.9682654
24812,13314.4997297
24833,14480.0974021
24955,11789.8768146
24971,13869.2359055
25087,13853.9023493
25103,9079.00306259
25232,12873.7419104
25431,10789.1592441
25520,14301.6103198
25550,13649.8553097
25563,15293.6479772
25625,13453.4139217
25632,14139.6556781
25803,13258.9891733
25818,14448.6111086
25823,10138.5508107
25859,14128.6004062
25861,11312.9601458
25887,8787.18656338
26015,126.750957225
26084,11162.2422753
26406,11287.5982232
26445,29961.3788428
26481,12168.7150669
26503,11452.1506662
26566,14267.0576904
26582,14370.4549569
26676,835.704920067
26682,1501.95423839
26688,534.208660886
26748,10808.4360133
26870,14278.9843785
26906,15718.6604755
27129,12702.8499092
27152,15493.1287405
27155,11976.567746
27189,15477.303113
27222,14440.7719915
27268,15146.8760063
27316,14094.7411356
27398,14578.876713
27432,14779.1999749
27451,11782.5079406
27457,17933.8428564
27691,78.3338278938
27807,930.721554702
27882,422.723198249
27908,815.899195263
27966,567.150638517
27971,391.508415594
28018,555.668388492
28024,428.163420661
28039,439.002199669
28043,1079.59826534
28077,351.382791552
28250,773.927929367
28333,604.923975875
28388,176.032279049
28474,249.366484941
28489,2.92895750826
28586,73.773157525
28662,896.004589462
28683,1120.08184644
28747,694.749933898
28837,191.271352797
28884,351.580675965
28898,815.128322115
28969,196.077591113
29017,1017.67263359
29021,1052.61158809
29054,314.766735502
29081,819.027553844
29139,840.10069762
29179,1185.75890345
29248,270.961779777
29261,247.627543719
29262,271.344576017
29283,475.564126111
29414,250.09630009
29436,239.625797331
29470,224.915708926
29666,915.072346291
29702,664.712678747
29711,1026.75199037
29832,1290.31530939
29835,524.75218323
29865,653.439871903
29872,693.103168694
29918,1182.90206227
29937,85.8837126025
29955,1410.74208079
29989,1004.53985896
30052,410.240331194
30079,87.5599473085
30091,48.6108202114
30165,1380.7121064
30171,1010.70901563
30192,605.301935393
30210,778.934694468
30259,1274.33233369
30267,1029.49369114
30269,377.949855052
30291,366.939814825
30405,1137.49936691
30472,831.606002174
30497,245.786136177
30517,95.3349194498
30575,695.281568423
30600,688.955257288
30660,452.589638469
30752,372.100724105
30823,3.6524048635
30974,1344.5381885
30986,980.462962737
31003,1327.1505846
31099,807.644163124
31152,385.245595414
31261,970.30214198
31312,1051.38133151
31371,1067.60825097
31384,760.515044279
31414,976.203874923
31445,524.746714066
31581,770.335377013
31634,839.321439839
31767,450.566731334
31774,458.72375549
31802,94.152152491
32004,1126.0901824
32065,232.558939128
32085,1006.74979911
32178,770.277851666
32204,129.614310294
32209,1124.60660416
32332,907.730440159
32417,823.897435369
32419,800.567202728
32436,743.58926969
32652,467.413787441
32662,398.637618317
32668,447.89994861
32719,544.179680687
32749,1256.60866417
32777,268.93302793
32778,250.217495588
32915,865.05288603
33019,1478.85534395
33041,1186.91002281
33084,1403.99949994
33091,1522.59300709
33100,1486.3665538
33146,755.188130128
33195,344.000254454
33341,647.98134393
33373,923.144602941
33380,1099.49979826
33422,587.074740379
33447,625.602886753
33505,713.839704324
33588,385.684352648
33616,397.395208318
33628,882.04512588
33671,142.845492376
33715,1033.02335815
33821,1194.35927113
33947,745.196765815
34012,1056.04362711
34030,1345.07728434
34044,1664.77641614
34076,1245.96671023
34091,572.940654052
34210,519.619934008
34402,1085.541026
34505,1381.51663229
34523,1103.33152914
34528,1215.27946533
34584,1345.1400687
34778,183.442876661
34801,1261.68221703
34809,1263.85559323
34813,199.580207074
34828,508.314568327
34834,484.57119829
34881,940.74624282
35099,1507.44228752
35131,1218.17114938
35162,897.656665218
35177,1419.7790511
35250,1287.04214927
35338,1472.65000389
35386,1407.97784242
35392,1303.73378256
35401,1098.53295556
35417,167.851563336
35420,191.397971944
35464,1609.97445681
35512,395.273393325
35558,755.329345575
35608,441.090213528
35629,396.787700406
35641,811.121110113
35662,831.339407451
35727,733.165897406
35762,1167.23158804
35772,1071.50085257
35852,1550.43086822
35864,1106.14673178
35895,1457.64090644
35945,120.511320855
35985,1197.52551375
36071,805.578992131
36094,126.202162467
36200,816.115227995
36233,1323.95267089
36299,894.393324512
36372,967.046702071
36413,778.89320428
36441,791.446250384
36465,808.367682849
36513,1534.58076658
36594,1426.08605403
36744,1333.80462856
36790,838.404144715
36798,836.610044837
36822,1683.97046977
36853,835.833067599
36895,1146.70186203
36907,1863.69416629
36955,450.948414239
36988,395.420834289
37089,659.888810007
37129,1813.37046099
37138,1763.28224336
37335,1398.91519005
37357,1372.97346439
37413,740.918003999
37417,678.282405066
37530,487.719945612
37553,1216.4544801
37616,724.258431017
37618,750.898876646
37632,696.964754019
37799,1670.6532888
37855,1797.1773868
37890,1725.31101646
37929,1923.04004832
37932,91.6016219513
37941,510.179179711
37968,1807.77470884
38100,828.509962288
38246,1735.36280161
38279,19.4597357755
38327,406.659886364
38333,1405.21353594
38348,1098.04609008
38356,1426.7716728
38398,1255.20874953
38454,1143.59236273
38555,1892.50610977
38706,867.166237987
38710,1260.22710686
38715,381.501920734
38798,1106.72519902
38834,1438.04573772
38902,1485.5034554
39071,1681.51113279
39112,934.811737347
39172,1105.35459446
39342,354.194012455
39523,286.266072032
39524,117.367921496
39527,795.046247834
39529,602.797724508
39559,1131.00215923
39573,1826.45954522
39578,876.431916216
39789,1715.03366421
39815,1751.7912283
39857,380.142617529
39870,1273.62985531
39919,1834.28321325
39971,1192.58240574
39978,198.640791425
40111,1996.94214348
40141,611.311011561
40232,1860.42237716
40290,191.101885261
40297,1268.9764939
40309,1400.70982019
40334,1984.87363703
40510,1633.26423509
40540,1589.21251752
40706,87.8878782279
40744,1083.85972616
40795,1653.57966635
40866,834.86003289
40957,1939.21117136
41000,1891.20031937
41031,1644.24160997
41077,1875.30758754
41101,811.963305045
41204,2034.6171977
41250,1183.79514559
41348,2183.26276314
41375,1135.7152032
41438,34.2761367081
41481,1221.28841542
41509,362.402841927
41598,2091.31021745
41642,1926.73153262
41650,1307.84279371
41679,439.861802433
41680,804.249092169
41757,1156.02040436
41831,1570.10838046
41890,2134.68035631
41917,1207.65797847
41944,287.031803667
41989,1826.53943022
42162,1185.48923359
42169,1049.47034817
42211,873.937667424
42268,2083.09532032
42432,1504.07680879
42454,1425.9993104
42480,2284.48743022
42491,2255.45036959
42509,1496.23055972
42586,1532.62567387
42588,1870.79155049
42595,1771.97815783
42603,528.972547743
42635,1208.93551833
42691,1434.43029975
42841,2040.18731117
42852,2198.26896384
42879,1553.31155502
42894,737.360025807
42938,718.401609317
42981,2101.36174497
42993,2165.96180258
43035,1677.11446269
43052,2326.95978127
43057,1833.17895117
43064,2462.27311536
43208,1505.13301835
43235,1136.24382379
43345,1066.34523796
43432,745.232039215
43468,2335.46437383
43526,1427.84028268
43542,1031.62162193
43549,1444.84278859
43676,1431.46103774
43718,1498.05447418
43756,2371.0497792
43817,1358.91216997
43834,1405.15709188
43837,1873.4578409
43840,1657.08386322
43846,1945.39619806
43979,842.588834532
44052,2246.72134223
44236,2446.35047951
44287,1758.74027245
44360,1919.1113833
44555,1977.85634349
44565,1749.95537268
44585,2230.36666476
44613,1672.27226128
44622,1999.55164235
44678,52.6218978095
44689,2055.13161236
44731,2280.85665219
44769,2285.11650491
44780,2476.99112572
44792,2086.10091903
44809,2097.37062654
44845,2175.14943747
44906,1842.24371443
44943,2233.52093903
44981,1348.65572894
45078,1145.32995764
45220,2094.93584267
45274,2282.9585268
45307,143.401096719
45316,275.571266375
45343,1977.40904018
45377,848.93475192
45381,719.326805534
45449,1168.84311559
45486,1846.92660369
45513,2367.2434622
45564,2225.41045874
45568,2098.8736655
45574,2204.2921082
45592,2192.37522949
45655,65.6025921583
45658,189.761328035
45763,2237.08374834
45786,2249.30520975
45823,2517.37090062
45826,1807.25304461
45931,2231.73103121
45949,2143.79239473
45964,1029.76493378
45968,2028.64053386
45981,384.482247129
45993,1180.57262123
46000,750.649935727
46046,840.731850926
46103,2516.87761191
46115,2146.18652465
46134,2187.60614432
46135,2055.50564034
46176,1895.73598057
46183,2497.09531932
46256,2149.23136663
46310,162.017249318
46359,2225.03749706
46382,1713.18658876
46395,1853.02422722
46423,2037.03421073
46428,2422.60795132
46620,2314.85750903
46732,2496.90493773
46809,1400.3273477
46813,2142.72586965
46814,2307.8013687
46943,2063.7262219
46944,2200.87243878
46970,195.483223594
47036,2402.7074938
47114,2635.84917024
47124,424.619824877
47143,2456.19151624
47265,2117.48313008
47299,1402.57511641
47399,2171.22975833
47422,2491.73210759
47448,2522.27202022
47460,2529.268353
47533,2591.07096419
47541,2958.15922838
47655,752.639372176
47732,1241.30167162
47744,1900.62713949
47745,2593.96548884
47751,2616.12048124
47788,2456.65270464
47937,2469.17308695
47944,2839.054341
48248,1673.11601589
48332,826.822995065
48337,2567.44095769
48356,2762.64339698
48364,2770.27350791
48439,2494.92327462
48469,2563.20453452
48512,2285.14756196
48571,2559.55166815
48577,2205.31135259
48646,102.289835323
48647,119.622203362
48672,2596.2044513
48889,2848.80270593
48968,87.7917215874
49011,1786.02459785
49044,1812.62371157
49067,3061.01775044
49164,2136.23914361
49181,3099.04131866
49269,3034.62173669
49297,107.848057704
49336,3095.88283424
49352,2632.68909364
49381,2840.09965334
49439,1742.25486178
49451,2372.51404884
49587,3108.06284974
49658,1703.52243771
49665,3032.51927148
49950,3126.34365009
49951,1029.52059285
49964,1239.36815377
49971,152.321070435
50022,2943.18142529
50065,3164.6747387
50150,1950.64538627
50159,3137.01583902
50289,549.396419102
50371,2499.09804844
50406,2279.02312495
50465,3257.70817354
50473,1956.93230478
50487,2202.22467053
50547,2814.71956932
50745,2046.00095862
50802,2065.38111135
50804,3180.4699068
50909,2194.87906594
50956,3262.45172458
51017,2859.85267999
51092,2783.53923186
51153,622.581786012
51259,130.464477465
51291,3218.94537356
51391,2678.96883802
51437,2780.07458433
51494,3021.64147497
51684,1142.58489201
51695,3115.92545815
51808,3489.12714528
51812,3153.69705057
51884,2610.34660471
51949,2472.92047664
51964,73.0750674888
52023,3292.14761129
52036,3532.71763728
52059,2940.08291632
52144,2829.54084349
52179,3032.77984078
52309,169.880410831
52359,3309.79407665
52381,3306.89609064
52403,3030.68404212
52415,3664.15192766
52467,3406.83688773
52483,3043.82743357
52678,2859.33939126
52754,2572.72654189
52777,3286.96974416
52798,2738.51460298
52858,3181.93781675
52910,3659.16059386
52920,3004.5977712
52952,874.276070999
53049,3283.56130359
53204,2401.30234553
53339,2878.84825884
53493,3348.1251098
53500,3252.24249131
53508,3799.3970521
53608,3358.04701536
53619,151.035991107
53650,275.365046456
53667,2539.57579422
53677,3642.40289252
53740,3592.01973869
53752,3838.99610916
53831,3249.66610514
53882,3924.10829845
53893,3895.60067719
53917,3298.50133727
